virtual_prototype/modules/dma/OUTPUT.vcd
$date
	Mon Apr 29 12:04:24 2024
$end
$version
	Icarus Verilog
$end
$timescale
	1s
$end
$scope module tb_ramDmaCi $end
$scope module DUT $end
$var wire 32 ! addressDataIn [31:0] $end
$var wire 1 " busErrorIn $end
$var wire 1 # busyIn $end
$var wire 8 $ ciN [7:0] $end
$var wire 1 % clock $end
$var wire 1 & dataValidIn $end
$var wire 1 ' done $end
$var wire 1 ( endTransactionIn $end
$var wire 1 ) reset $end
$var wire 1 * s_startCi $end
$var wire 1 + start $end
$var wire 1 , transactionGranted $end
$var wire 32 - valueA [31:0] $end
$var wire 32 . valueB [31:0] $end
$var wire 1 / requestTransaction $end
$var wire 1 0 readNotWriteOut $end
$var wire 32 1 partial [31:0] $end
$var wire 1 2 endTransactionOut $end
$var wire 32 3 dataoutB [31:0] $end
$var wire 1 4 dataValidOut $end
$var wire 4 5 byteEnablesOut [3:0] $end
$var wire 8 6 burstSizeOut [7:0] $end
$var wire 1 7 beginTransactionOut $end
$var wire 32 8 addressDataOut [31:0] $end
$var parameter 4 9 ERROR $end
$var parameter 4 : FINISH_WRITE $end
$var parameter 4 ; IDLE $end
$var parameter 4 < INIT_BURST_R $end
$var parameter 4 = INIT_BURST_W $end
$var parameter 4 > INIT_R $end
$var parameter 4 ? INIT_W $end
$var parameter 4 @ READ $end
$var parameter 4 A REQUEST_BUS_R $end
$var parameter 4 B REQUEST_BUS_W $end
$var parameter 4 C WRITE $end
$var parameter 8 D customId $end
$var reg 10 E block_size [9:0] $end
$var reg 8 F burst_size [7:0] $end
$var reg 32 G bus_start_address [31:0] $end
$var reg 2 H control_reg [1:0] $end
$var reg 1 I done_int $end
$var reg 9 J memory_start_address [8:0] $end
$var reg 32 K result [31:0] $end
$var reg 10 L s_blockCountReg [9:0] $end
$var reg 8 M s_burstCountReg [7:0] $end
$var reg 32 N s_busAddressReg [31:0] $end
$var reg 32 O s_busDataInReg [31:0] $end
$var reg 1 P s_busDataInValidReg $end
$var reg 1 Q s_busyIn $end
$var reg 32 R s_dataoutB [31:0] $end
$var reg 4 S s_dmaState [3:0] $end
$var reg 4 T s_dmaStateNext [3:0] $end
$var reg 1 U s_endTransactionInReg $end
$var reg 9 V s_memoryAddressReg [8:0] $end
$var reg 1 W s_reading $end
$var reg 2 X status_reg [1:0] $end
$upscope $end
$upscope $end
$enddefinitions $end
$comment Show the parameter values. $end
$dumpall
b1111 D
b1000 C
b110 B
b11 A
b101 @
b10 ?
b1 >
b111 =
b100 <
b0 ;
b1001 :
b1010 9
$end
#0
$dumpvars
b0 X
0W
b0 V
0U
b0 T
b0 S
bx R
0Q
0P
b0 O
b0 N
b0 M
b0 L
bx K
b0 J
xI
b0 H
b0 G
b0 F
b0 E
b0 8
07
b0 6
b0 5
04
bx 3
02
bx 1
00
0/
b0 .
b1000000000 -
0,
0+
0*
1)
0(
x'
0&
0%
b1111 $
0#
0"
b0 !
$end
#5
0'
0I
b0 K
1%
#10
0%
#15
1%
#20
0)
0%
#25
1%
#30
0%
#35
1%
#40
1*
b11000000000 -
b110111 .
1+
0%
#45
1'
1I
b110111 G
1%
#50
b101000000000 -
b0 .
0%
#55
1%
#60
b111000000000 -
b110 .
0%
#65
b110 E
1%
#70
b1001000000000 -
b10 .
0%
#75
b10 F
1%
#80
0*
0+
0%
#85
0'
0I
1%
#90
1*
b1011000000000 -
b1 .
1+
0%
#95
b1 T
1'
1I
b1 H
1%
#100
0*
0+
0%
#105
b11 T
b0 H
0'
0I
b1 S
1%
#110
0%
#115
1/
b110 L
b110111 N
b1 X
b11 S
1%
#120
0%
#125
1%
#130
0%
#135
1%
#140
b100 T
1,
0%
#145
b101 T
b10 6
b110111 8
17
0/
b1111 5
10
b100 S
1%
#150
0,
0%
#155
b0 6
b0 8
07
b0 5
00
b101 S
1%
#160
0%
#165
1%
#170
b1010 !
1&
0%
#175
1P
b1010000000000000000000000000 O
1%
#180
b1010000000000000000000000000 3
b10100 !
0%
#185
b1010000000000000000000000000 1
b1 V
b101 L
b111011 N
b10100000000000000000000000000 O
b1010000000000000000000000000 R
1%
#190
b10100000000000000000000000000 3
b11110 !
0%
#195
b10 V
b100 L
b111111 N
b11110000000000000000000000000 O
b10100000000000000000000000000 R
1%
#200
b11110000000000000000000000000 3
b0 !
0&
0%
#205
b11 V
b11 L
b1000011 N
0P
b0 O
b11110000000000000000000000000 R
1%
#210
bx 3
1(
0%
#215
b11 T
1U
bx R
1%
#220
0(
0%
#225
1/
0U
b11 S
1%
#230
0%
#235
1%
#240
0%
#245
1%
#250
0%
#255
1%
#260
b100 T
1,
0%
#265
b101 T
b10 6
b1000011 8
17
0/
b1111 5
10
b100 S
1%
#270
0,
0%
#275
b0 6
b0 8
07
b0 5
00
b101 S
1%
#280
0%
#285
1%
#290
b101000 !
1&
0%
#295
1P
b101000000000000000000000000000 O
1%
#300
b101000000000000000000000000000 3
b110010 !
0%
#305
b100 V
b10 L
b1000111 N
b110010000000000000000000000000 O
b101000000000000000000000000000 R
1%
#310
b110010000000000000000000000000 3
b111100 !
0%
#315
b101 V
b1 L
b1001011 N
b111100000000000000000000000000 O
b110010000000000000000000000000 R
1%
#320
b111100000000000000000000000000 3
b0 !
0&
0%
#325
b110 V
b0 L
b1001111 N
0P
b0 O
b111100000000000000000000000000 R
1%
#330
bx 3
1(
0%
#335
b0 T
1U
bx R
1%
#340
0(
0%
#345
0U
b0 S
1%
#350
0%
#355
b0 X
1%
#360
0%
#365
1%
#370
0%
#375
1%
#380
0%
#385
1%
#390
0%
#395
1*
1+
b101 -
1%
#400
0%
#405
b111100000000000000000000000000 1
1W
0*
0+
1%
#410
0%
#415
0W
1'
1I
b111100000000000000000000000000 K
1%
#420
0%
#425
0'
0I
b0 K
1%
#430
0%
#435
1%
#440
0%
#445
1%
#450
1*
b1101 .
1+
b11000000000 -
0%
#455
1'
1I
b1101 G
b1010000000000000000000000000 1
1%
#460
b101000000000 -
b0 .
0%
#465
1%
#470
b111000000000 -
b101 .
0%
#475
b101 E
1%
#480
0*
0+
b1001000000000 -
b10 .
0%
#485
0'
0I
1%
#490
0%
#495
1%
#500
0%
#505
1%
#510
0%
#515
1%
#520
1*
b1011000000000 -
1+
0%
#525
b10 T
1'
1I
b10 H
1%
#530
0*
b1000000000 -
0+
0%
#535
b110 T
b10 S
b0 H
0'
0I
1%
#540
0%
#545
1/
b0 V
b101 L
b1101 N
b1 X
b110 S
1%
#550
b1010000000000000000000000000 3
0%
#555
b10 M
b1010000000000000000000000000 R
1%
#560
0%
#565
1%
#570
0%
#575
1%
#580
0%
#585
1%
#590
b111 T
1,
0%
#595
b1000 T
b10 6
b1101 8
17
0/
b1111 5
b111 S
1%
#600
0,
0%
#605
b0 6
b1010 8
07
b0 5
14
b1 V
b1000 S
1%
#610
b10100000000000000000000000000 3
0%
#615
b10100 8
b1 M
b10 V
b100 L
b10001 N
b10100000000000000000000000000 R
1%
#620
b11110000000000000000000000000 3
1#
0%
#625
b1001 T
b11110 8
b0 M
b11 L
b10101 N
b11110000000000000000000000000 R
1%
#630
b1000 T
1Q
0%
#635
1%
#640
0%
#645
1%
#650
b1001 T
0Q
0#
0%
#655
b110 T
b0 8
12
04
b11111111 M
b10 L
b11001 N
b1001 S
1%
#660
0%
#665
1/
02
b110 S
1%
#670
0%
#675
b1 M
1%
#680
0%
#685
1%
#690
0%
#695
1%
#700
0%
#705
1%
#710
0%
#715
1%
#720
0%
#725
1%
#730
0%
#735
1%
#740
0%
#745
1%
#750
b111 T
1,
0%
#755
b1000 T
b1 6
b11001 8
17
0/
b1111 5
b111 S
1%
#760
0,
0%
#765
b0 6
b11110 8
07
b0 5
14
b11 V
b1000 S
1%
#770
b101000000000000000000000000000 3
0%
#775
b1001 T
b101000 8
b0 M
b100 V
b1 L
b11101 N
b101000000000000000000000000000 R
1%
#780
b110010000000000000000000000000 3
0%
#785
b0 T
b0 8
12
04
b11111111 M
b0 L
b100001 N
b110010000000000000000000000000 R
b1001 S
1%
#790
0%
#795
02
b0 S
1%
#800
0%
#805
b0 X
1%
#810
0%
#815
1%
#820
0%
#825
1%
#830
0%
#835
1%
#840
0%
#845
1%
#850
0%
#855
1%
#860
1,
0%
#865
1%
#870
0,
0%
