virtual_prototype/modules/dma/OUTPUT.vcd
$date
	Sun Apr 28 22:45:35 2024
$end
$version
	Icarus Verilog
$end
$timescale
	1s
$end
$scope module tb_ramDmaCi $end
$scope module DUT $end
$var wire 32 ! addressDataIn [31:0] $end
$var wire 32 " addressDataOut [31:0] $end
$var wire 1 # beginTransactionOut $end
$var wire 1 $ busErrorIn $end
$var wire 1 % busyIn $end
$var wire 8 & ciN [7:0] $end
$var wire 1 ' clock $end
$var wire 1 ( dataValidIn $end
$var wire 1 ) dataValidOut $end
$var wire 1 * done $end
$var wire 1 + endTransactionIn $end
$var wire 1 , endTransactionOut $end
$var wire 1 - reset $end
$var wire 32 . s_busDataInReg_input [31:0] $end
$var wire 1 / s_startCi $end
$var wire 1 0 start $end
$var wire 1 1 transactionGranted $end
$var wire 32 2 valueA [31:0] $end
$var wire 32 3 valueB [31:0] $end
$var wire 9 4 s_busDataInValidReg_input [8:0] $end
$var wire 1 5 requestTransaction $end
$var wire 32 6 partial [31:0] $end
$var wire 32 7 dataoutB [31:0] $end
$var parameter 4 8 CAZZO $end
$var parameter 4 9 ERROR $end
$var parameter 4 : FINISH_WRITE $end
$var parameter 4 ; FINISH_WRITE_2 $end
$var parameter 4 < IDLE $end
$var parameter 4 = INIT_BURST_R $end
$var parameter 4 > INIT_BURST_W $end
$var parameter 4 ? INIT_R $end
$var parameter 4 @ INIT_W $end
$var parameter 4 A READ $end
$var parameter 4 B REQUEST_BUS_R $end
$var parameter 4 C REQUEST_BUS_W $end
$var parameter 4 D WRITE $end
$var parameter 8 E customId $end
$var reg 10 F block_size [9:0] $end
$var reg 8 G burstSizeOut [7:0] $end
$var reg 8 H burst_size [7:0] $end
$var reg 32 I bus_start_address [31:0] $end
$var reg 4 J byteEnablesOut [3:0] $end
$var reg 2 K control_reg [1:0] $end
$var reg 1 L done_int $end
$var reg 9 M memory_start_address [8:0] $end
$var reg 1 N readNotWriteOut $end
$var reg 32 O result [31:0] $end
$var reg 1 P s_beginTransactionOutReg $end
$var reg 10 Q s_blockCountReg [9:0] $end
$var reg 8 R s_burstCountReg [7:0] $end
$var reg 32 S s_busAddressReg [31:0] $end
$var reg 32 T s_busDataInReg [31:0] $end
$var reg 1 U s_busDataInValidReg $end
$var reg 32 V s_busDataOutReg [31:0] $end
$var reg 32 W s_cazzo [31:0] $end
$var reg 1 X s_dataValidOutReg $end
$var reg 4 Y s_dmaState [3:0] $end
$var reg 4 Z s_dmaStateNext [3:0] $end
$var reg 32 [ s_eddai [31:0] $end
$var reg 1 \ s_endTransactionInReg $end
$var reg 1 ] s_endTransactionOutReg $end
$var reg 9 ^ s_memoryAddressReg [8:0] $end
$var reg 1 _ s_reading $end
$var reg 1 ` s_startTransactionReg $end
$var reg 2 a status_reg [1:0] $end
$upscope $end
$upscope $end
$enddefinitions $end
$comment Show the parameter values. $end
$dumpall
b1111 E
b1000 D
b110 C
b11 B
b101 A
b10 @
b1 ?
b111 >
b100 =
b0 <
b1010 ;
b1001 :
b1011 9
b1100 8
$end
#0
$dumpvars
b0 a
0`
0_
b0 ^
0]
0\
b0 [
b0 Z
b0 Y
0X
b0 W
b0 V
0U
b0 T
b0 S
b0 R
b0 Q
0P
bx O
xN
b0 M
xL
b0 K
bx J
b0 I
b0 H
bx G
b0 F
bx 7
bx 6
05
b0 4
b0 3
b1000000000 2
01
00
0/
b0 .
1-
0,
0+
x*
0)
0(
0'
b1111 &
0%
0$
0#
b0 "
b0 !
$end
#5
0*
0L
b0 O
b0 J
b0 G
0N
1'
#10
0'
#15
1'
#20
0-
0'
#25
1'
#30
0'
#35
1'
#40
1/
b11000000000 2
b110111 3
10
0'
#45
1*
1L
b110111 I
1'
#50
b101000000000 2
b0 3
0'
#55
1'
#60
b111000000000 2
b110 3
0'
#65
b110 F
1'
#70
b1001000000000 2
b10 3
0'
#75
b10 H
1'
#80
0/
00
0'
#85
0*
0L
1'
#90
1/
b1011000000000 2
b1 3
10
0'
#95
b1 Z
1*
1L
b1 K
1'
#100
0/
00
0'
#105
b11 Z
b0 K
0*
0L
b1 Y
1'
#110
b110 Q
b110111 S
0'
#115
15
b1 a
b11 Y
1'
#120
0'
#125
1'
#130
0'
#135
1'
#140
b100 Z
11
0'
#145
b110111 W
b101 Z
05
b100 Y
1'
#150
01
0'
#155
b0 W
b1111 J
b10 G
1N
1#
1P
b110111 "
b110111 V
b101 Y
1'
#160
0'
#165
b0 J
b0 G
0N
0#
0P
b0 "
b0 V
1'
#170
b1010 !
1(
0'
#175
b1 4
b1010000000000000000000000000 .
b1010000000000000000000000000 T
1U
1'
#180
b1010000000000000000000000000 7
b1 ^
b101 Q
b111011 S
b10100 !
0'
#185
b1010000000000000000000000000 6
b10100000000000000000000000000 .
b10100000000000000000000000000 T
1'
#190
b10100000000000000000000000000 7
b10 ^
b100 Q
b111111 S
b11110 !
0'
#195
b11110000000000000000000000000 .
b11110000000000000000000000000 T
1'
#200
b11110000000000000000000000000 7
b11 ^
b11 Q
b1000011 S
b0 !
0(
0'
#205
b0 4
b0 .
b0 T
0U
1'
#210
bx 7
1+
0'
#215
b11 Z
1\
1'
#220
0+
0'
#225
15
0\
b11 Y
1'
#230
0'
#235
1'
#240
0'
#245
1'
#250
0'
#255
1'
#260
b100 Z
11
0'
#265
b1000011 W
b101 Z
05
b100 Y
1'
#270
01
0'
#275
b0 W
b1111 J
b10 G
1N
1#
1P
b1000011 "
b1000011 V
b101 Y
1'
#280
0'
#285
b0 J
b0 G
0N
0#
0P
b0 "
b0 V
1'
#290
b101000 !
1(
0'
#295
b1 4
b101000000000000000000000000000 .
b101000000000000000000000000000 T
1U
1'
#300
b101000000000000000000000000000 7
b100 ^
b10 Q
b1000111 S
b110010 !
0'
#305
b110010000000000000000000000000 .
b110010000000000000000000000000 T
1'
#310
b110010000000000000000000000000 7
b101 ^
b1 Q
b1001011 S
b111100 !
0'
#315
b111100000000000000000000000000 .
b111100000000000000000000000000 T
1'
#320
b111100000000000000000000000000 7
b110 ^
b0 Q
b1001111 S
b0 !
0(
0'
#325
b0 4
b0 .
b0 T
0U
1'
#330
bx 7
1+
0'
#335
b0 Z
1\
1'
#340
0+
0'
#345
0\
b0 Y
1'
#350
0'
#355
b0 a
1'
#360
0'
#365
1'
#370
0'
#375
1'
#380
0'
#385
1'
#390
0'
#395
1/
10
b101 2
1'
#400
0'
#405
b111100000000000000000000000000 6
1_
0/
00
1'
#410
0'
#415
0_
1*
1L
b111100000000000000000000000000 O
1'
#420
0'
#425
0*
0L
b0 O
1'
#430
0'
#435
1'
#440
0'
#445
1'
#450
1/
b1101 3
10
b11000000000 2
0'
#455
1*
1L
b1101 I
b1010000000000000000000000000 6
1'
#460
b101000000000 2
b0 3
0'
#465
1'
#470
b111000000000 2
b101 3
0'
#475
b101 F
1'
#480
0/
00
b1001000000000 2
b10 3
0'
#485
0*
0L
1'
#490
0'
#495
1'
#500
0'
#505
1'
#510
0'
#515
1'
#520
1/
b1011000000000 2
10
0'
#525
b10 Z
1*
1L
b10 K
1'
#530
0/
b1000000000 2
00
0'
#535
b110 Z
b10 Y
b0 K
0*
0L
1'
#540
b0 ^
b101 Q
b1101 S
0'
#545
15
b1 a
b110 Y
1'
#550
b1010000000000000000000000000 7
b10 R
0'
#555
1'
#560
0'
#565
1'
#570
0'
#575
1'
#580
0'
#585
1'
#590
b111 Z
11
0'
#595
b1101 W
05
b1000 Z
b111 Y
01
1'
#600
0'
#605
b1010 W
b1111 J
b10 G
1#
1P
b1101 "
b1101 V
b1000 Y
1'
#610
b1 R
b1 ^
b100 Q
b10001 S
0'
#615
b0 J
1)
1X
b0 G
0#
0P
b1010 "
b1010 V
1'
#620
b10100 W
b10100000000000000000000000000 7
b0 R
b10 ^
b11 Q
b10101 S
0'
#625
b10100 "
b10100 V
1'
#630
b1001 Z
b11110 W
b11110000000000000000000000000 7
b11111111 R
b11 ^
b10 Q
b11001 S
0'
#635
b0 W
b1000 Z
b11110 "
b11110 V
b1001 Y
1%
1'
#640
b101000000000000000000000000000 7
b11110 [
0'
#645
b1001 Z
b0 "
b0 V
b1000 Y
1'
#650
0'
#655
b1010 Z
b0 W
b1001 Y
0%
1'
#660
0'
#665
b110 Z
1,
1]
0)
0X
b1010 Y
1'
#670
0'
#675
15
0,
0]
b110 Y
1'
#680
b1 R
0'
#685
1'
#690
0'
#695
1'
#700
0'
#705
1'
#710
0'
#715
1'
#720
0'
#725
1'
#730
0'
#735
1'
#740
0'
#745
1'
#750
b111 Z
11
0'
#755
b11001 W
b1000 Z
05
b111 Y
1'
#760
01
0'
#765
b101000 W
b1111 J
b1 G
1#
1P
b11001 "
b11001 V
b1000 Y
1'
#770
b0 R
b100 ^
b1 Q
b11101 S
0'
#775
b0 J
1)
1X
b0 G
0#
0P
b101000 "
b101000 V
1'
#780
b1001 Z
b110010 W
b110010000000000000000000000000 7
b11111111 R
b101 ^
b0 Q
b100001 S
0'
#785
b0 W
b0 Z
b110010 "
b110010 V
b1001 Y
1'
#790
b111100000000000000000000000000 7
0'
#795
1,
1]
0)
0X
b0 "
b0 V
b0 Y
1'
#800
0'
#805
0,
0]
b0 a
1'
#810
0'
#815
1'
#820
0'
#825
1'
#830
0'
#835
1'
#840
0'
#845
1'
#850
0'
#855
1'
#860
11
0'
#865
1'
#870
01
0'
