pw1/counter/counterSignals.vcd
$date
	Tue Feb 27 13:45:52 2024
$end
$version
	Icarus Verilog
$end
$timescale
	1ps
$end
$scope module counterTestBench $end
$scope module dut $end
$var wire 1 ! clock $end
$var wire 1 " direction $end
$var wire 1 # enable $end
$var wire 1 $ reset $end
$var parameter 32 % WIDTH $end
$var reg 8 & counterValue [7:0] $end
$upscope $end
$upscope $end
$enddefinitions $end
$comment Show the parameter values. $end
$dumpall
b1000 %
$end
#0
$dumpvars
bx &
1$
x#
1"
0!
$end
#5
b0 &
1!
#10
0#
0!
#15
1!
#20
1#
0$
0!
#25
b1 &
1!
#30
0#
0!
#35
1!
#40
1#
0!
#45
b10 &
1!
#50
0#
0!
#55
1!
#60
1#
0!
#65
b11 &
1!
#70
0#
0!
#75
1!
#80
1#
0!
#85
b100 &
1!
#90
0#
0!
#95
1!
#100
1#
0!
#105
b101 &
1!
#110
0#
0!
#115
1!
#120
1#
0!
#125
b110 &
1!
#130
0#
0!
#135
1!
#140
1#
0!
#145
b111 &
1!
#150
0#
0!
#155
1!
#160
1#
0!
#165
b1000 &
1!
#170
0#
0!
#175
1!
#180
1#
0!
#185
b1001 &
1!
#190
0#
0!
#195
1!
#200
1#
0!
#205
b1010 &
1!
#210
0#
0!
#215
1!
#220
1#
0!
#225
b1011 &
1!
#230
0#
0!
#235
1!
#240
1#
0!
#245
b1100 &
1!
#250
0#
0!
#255
1!
#260
1#
0!
#265
b1101 &
1!
#270
0#
0!
#275
1!
#280
1#
0!
#285
b1110 &
1!
#290
0#
0!
#295
1!
#300
1#
0!
#305
b1111 &
1!
#310
0#
0!
#315
1!
#320
1#
0!
#325
b10000 &
1!
#330
0#
0!
#335
1!
#340
1#
0!
#345
b10001 &
1!
#350
0#
0!
#355
1!
#360
1#
0!
#365
b10010 &
1!
#370
0#
0!
#375
1!
#380
1#
0!
#385
b10011 &
1!
#390
0#
0!
#395
1!
#400
1#
0!
#405
b10100 &
1!
#410
0#
0!
#415
1!
#420
1#
0!
#425
b10101 &
1!
#430
0#
0!
#435
1!
#440
1#
0!
#445
b10110 &
1!
#450
0#
0!
#455
1!
#460
1#
0!
#465
b10111 &
1!
#470
0#
0!
#475
1!
#480
1#
0!
#485
b11000 &
1!
#490
0#
0!
#495
1!
#500
1#
0!
#505
b11001 &
1!
#510
0#
0!
#515
1!
#520
1#
0!
#525
b11010 &
1!
#530
0#
0!
#535
1!
#540
1#
0!
#545
b11011 &
1!
#550
0#
0!
#555
1!
#560
1#
0!
#565
b11100 &
1!
#570
0#
0!
#575
1!
#580
1#
0!
#585
b11101 &
1!
#590
0#
0!
#595
1!
#600
1#
0!
#605
b11110 &
1!
#610
0#
0!
#615
1!
#620
1#
0!
#625
b11111 &
1!
#630
0#
0!
#635
1!
#640
1#
0!
#645
b100000 &
1!
#650
0#
0!
#655
1!
#660
1#
0!
#665
b100001 &
1!
#670
0#
0!
#675
1!
#680
1#
0!
#685
b100010 &
1!
#690
0#
0!
#695
1!
#700
1#
0!
#705
b100011 &
1!
#710
0#
0!
#715
1!
#720
1#
0!
#725
b100100 &
1!
#730
0#
0!
#735
1!
#740
1#
0!
#745
b100101 &
1!
#750
0#
0!
#755
1!
#760
1#
0!
#765
b100110 &
1!
#770
0#
0!
#775
1!
#780
1#
0!
#785
b100111 &
1!
#790
0#
0!
#795
1!
#800
1#
0!
#805
b101000 &
1!
#810
0#
0!
#815
1!
#820
1#
0!
#825
b101001 &
1!
#830
0#
0!
#835
1!
#840
1#
0!
#845
b101010 &
1!
#850
0#
0!
#855
1!
#860
1#
0!
#865
b101011 &
1!
#870
0#
0!
#875
1!
#880
1#
0!
#885
b101100 &
1!
#890
0#
0!
#895
1!
#900
1#
0!
#905
b101101 &
1!
#910
0#
0!
#915
1!
#920
1#
0!
#925
b101110 &
1!
#930
0#
0!
#935
1!
#940
1#
0!
#945
b101111 &
1!
#950
0#
0!
#955
1!
#960
1#
0!
#965
b110000 &
1!
#970
0#
0!
#975
1!
#980
1#
0!
#985
b110001 &
1!
#990
0#
0!
#995
1!
#1000
1#
0!
#1005
b110010 &
1!
#1010
0#
0!
#1015
1!
#1020
1#
0!
#1025
b110011 &
1!
#1030
0#
0!
#1035
1!
#1040
1#
0!
#1045
b110100 &
1!
#1050
0#
0!
#1055
1!
#1060
1#
0!
#1065
b110101 &
1!
#1070
0#
0!
#1075
1!
#1080
1#
0!
#1085
b110110 &
1!
#1090
0#
0!
#1095
1!
#1100
1#
0!
#1105
b110111 &
1!
#1110
0#
0!
#1115
1!
#1120
0"
1#
0!
#1125
b110110 &
1!
#1130
0#
0!
#1135
1!
#1140
1#
0!
#1145
b110101 &
1!
#1150
0#
0!
#1155
1!
#1160
1#
0!
#1165
b110100 &
1!
#1170
0#
0!
#1175
1!
#1180
1#
0!
#1185
b110011 &
1!
#1190
0#
0!
#1195
1!
#1200
1#
0!
#1205
b110010 &
1!
#1210
0#
0!
#1215
1!
#1220
1#
0!
#1225
b110001 &
1!
#1230
0#
0!
#1235
1!
#1240
1#
0!
#1245
b110000 &
1!
#1250
0#
0!
#1255
1!
#1260
1#
0!
#1265
b101111 &
1!
#1270
0#
0!
#1275
1!
#1280
1#
0!
#1285
b101110 &
1!
#1290
0#
0!
#1295
1!
#1300
1#
0!
#1305
b101101 &
1!
#1310
0#
0!
#1315
1!
#1320
1#
0!
#1325
b101100 &
1!
#1330
0#
0!
#1335
1!
#1340
1#
0!
#1345
b101011 &
1!
#1350
0#
0!
#1355
1!
#1360
1#
0!
#1365
b101010 &
1!
#1370
0#
0!
#1375
1!
#1380
1#
0!
#1385
b101001 &
1!
#1390
0#
0!
#1395
1!
#1400
1#
0!
#1405
b101000 &
1!
#1410
0#
0!
#1415
1!
#1420
1#
0!
#1425
b100111 &
1!
#1430
0#
0!
#1435
1!
#1440
1#
0!
#1445
b100110 &
1!
#1450
0#
0!
#1455
1!
#1460
1#
0!
#1465
b100101 &
1!
#1470
0#
0!
#1475
1!
#1480
1#
0!
#1485
b100100 &
1!
#1490
0#
0!
#1495
1!
#1500
1#
0!
#1505
b100011 &
1!
#1510
0#
0!
#1515
1!
#1520
1#
0!
#1525
b100010 &
1!
#1530
0#
0!
#1535
1!
#1540
1#
0!
#1545
b100001 &
1!
#1550
0#
0!
#1555
1!
#1560
1#
0!
#1565
b100000 &
1!
#1570
0#
0!
#1575
1!
#1580
1#
0!
#1585
b11111 &
1!
#1590
0#
0!
#1595
1!
#1600
1#
0!
#1605
b11110 &
1!
#1610
0#
0!
#1615
1!
#1620
1#
0!
#1625
b11101 &
1!
#1630
0#
0!
#1635
1!
#1640
1#
0!
#1645
b11100 &
1!
#1650
0#
0!
#1655
1!
#1660
1#
0!
#1665
b11011 &
1!
#1670
0#
0!
#1675
1!
#1680
1#
0!
#1685
b11010 &
1!
#1690
0#
0!
#1695
1!
#1700
1#
0!
#1705
b11001 &
1!
#1710
0#
0!
#1715
1!
#1720
1#
0!
#1725
b11000 &
1!
#1730
0#
0!
#1735
1!
#1740
1#
0!
#1745
b10111 &
1!
#1750
0#
0!
#1755
1!
#1760
1#
0!
#1765
b10110 &
1!
#1770
0#
0!
#1775
1!
#1780
1#
0!
#1785
b10101 &
1!
#1790
0#
0!
#1795
1!
#1800
1#
0!
#1805
b10100 &
1!
#1810
0#
0!
#1815
1!
#1820
1#
0!
#1825
b10011 &
1!
#1830
0#
0!
#1835
1!
#1840
1#
0!
#1845
b10010 &
1!
#1850
0#
0!
#1855
1!
#1860
1#
0!
#1865
b10001 &
1!
#1870
0#
0!
#1875
1!
#1880
1#
0!
#1885
b10000 &
1!
#1890
0#
0!
#1895
1!
#1900
1#
0!
#1905
b1111 &
1!
#1910
0#
0!
#1915
1!
#1920
1#
0!
#1925
b1110 &
1!
#1930
0#
0!
#1935
1!
#1940
1#
0!
#1945
b1101 &
1!
#1950
0#
0!
#1955
1!
#1960
1#
0!
#1965
b1100 &
1!
#1970
0#
0!
#1975
1!
#1980
1#
0!
#1985
b1011 &
1!
#1990
0#
0!
#1995
1!
#2000
1#
0!
#2005
b1010 &
1!
#2010
0#
0!
#2015
1!
#2020
1#
0!
#2025
b1001 &
1!
#2030
0#
0!
#2035
1!
#2040
1#
0!
#2045
b1000 &
1!
#2050
0#
0!
#2055
1!
#2060
1#
0!
#2065
b111 &
1!
#2070
0#
0!
#2075
1!
#2080
1#
0!
#2085
b110 &
1!
#2090
0#
0!
#2095
1!
#2100
1#
0!
#2105
b101 &
1!
#2110
0#
0!
#2115
1!
#2120
1#
0!
#2125
b100 &
1!
#2130
0#
0!
#2135
1!
#2140
1#
0!
#2145
b11 &
1!
#2150
0#
0!
#2155
1!
#2160
1#
0!
#2165
b10 &
1!
#2170
0#
0!
#2175
1!
#2180
1#
0!
#2185
b1 &
1!
#2190
0#
0!
#2195
1!
#2200
1#
0!
#2205
b0 &
1!
#2210
0#
0!
#2215
1!
#2220
1#
0!
#2225
b11111111 &
1!
#2230
0#
0!
#2235
1!
#2240
1#
0!
#2245
b11111110 &
1!
#2250
0#
0!
#2255
1!
#2260
1#
0!
#2265
b11111101 &
1!
#2270
0#
0!
#2275
1!
#2280
1#
0!
#2285
b11111100 &
1!
#2290
0#
0!
#2295
1!
#2300
1#
0!
#2305
b11111011 &
1!
#2310
0#
0!
#2315
1!
#2320
1#
0!
#2325
b11111010 &
1!
#2330
0#
0!
#2335
1!
#2340
1#
0!
#2345
b11111001 &
1!
#2350
0#
0!
#2355
1!
#2360
1#
0!
#2365
b11111000 &
1!
#2370
0#
0!
#2375
1!
#2380
1#
0!
#2385
b11110111 &
1!
#2390
0#
0!
#2395
1!
#2400
1#
0!
#2405
b11110110 &
1!
#2410
0#
0!
#2415
1!
#2420
1#
0!
#2425
b11110101 &
1!
#2430
0#
0!
#2435
1!
#2440
1#
0!
#2445
b11110100 &
1!
#2450
0#
0!
#2455
1!
#2460
1#
0!
#2465
b11110011 &
1!
#2470
0#
0!
#2475
1!
#2480
1#
0!
#2485
b11110010 &
1!
#2490
0#
0!
#2495
1!
#2500
1#
0!
#2505
b11110001 &
1!
#2510
0#
0!
#2515
1!
#2520
1#
0!
#2525
b11110000 &
1!
#2530
0#
0!
#2535
1!
#2540
1#
0!
#2545
b11101111 &
1!
#2550
0#
0!
#2555
1!
#2560
1#
0!
#2565
b11101110 &
1!
#2570
0#
0!
#2575
1!
#2580
1#
0!
#2585
b11101101 &
1!
#2590
0#
0!
#2595
1!
#2600
1#
0!
#2605
b11101100 &
1!
#2610
0#
0!
#2615
1!
#2620
1#
0!
#2625
b11101011 &
1!
#2630
0#
0!
#2635
1!
#2640
1#
0!
#2645
b11101010 &
1!
#2650
0#
0!
#2655
1!
#2660
1#
0!
#2665
b11101001 &
1!
#2670
0#
0!
#2675
1!
#2680
1#
0!
#2685
b11101000 &
1!
#2690
0#
0!
#2695
1!
#2700
1#
0!
#2705
b11100111 &
1!
#2710
0#
0!
#2715
1!
#2720
1#
0!
#2725
b11100110 &
1!
#2730
0#
0!
#2735
1!
#2740
1#
0!
#2745
b11100101 &
1!
#2750
0#
0!
#2755
1!
#2760
1#
0!
#2765
b11100100 &
1!
#2770
0#
0!
#2775
1!
#2780
1#
0!
#2785
b11100011 &
1!
#2790
0#
0!
#2795
1!
#2800
1#
0!
#2805
b11100010 &
1!
#2810
0#
0!
#2815
1!
#2820
1#
0!
#2825
b11100001 &
1!
#2830
0#
0!
#2835
1!
#2840
1#
0!
#2845
b11100000 &
1!
#2850
0#
0!
#2855
1!
#2860
1#
0!
#2865
b11011111 &
1!
#2870
0#
0!
#2875
1!
#2880
1#
0!
#2885
b11011110 &
1!
#2890
0#
0!
#2895
1!
#2900
1#
0!
#2905
b11011101 &
1!
#2910
0#
0!
#2915
1!
#2920
1#
0!
#2925
b11011100 &
1!
#2930
0#
0!
#2935
1!
#2940
1#
0!
#2945
b11011011 &
1!
#2950
0#
0!
#2955
1!
#2960
1#
0!
#2965
b11011010 &
1!
#2970
0#
0!
#2975
1!
#2980
1#
0!
#2985
b11011001 &
1!
#2990
0#
0!
#2995
1!
#3000
1#
0!
#3005
b11011000 &
1!
#3010
0#
0!
#3015
1!
#3020
1#
0!
#3025
b11010111 &
1!
#3030
0#
0!
#3035
1!
#3040
1#
0!
#3045
b11010110 &
1!
#3050
0#
0!
#3055
1!
#3060
1#
0!
#3065
b11010101 &
1!
#3070
0#
0!
#3075
1!
#3080
1#
0!
#3085
b11010100 &
1!
#3090
0#
0!
#3095
1!
#3100
1#
0!
#3105
b11010011 &
1!
#3110
0#
0!
#3115
1!
#3120
1#
0!
#3125
b11010010 &
1!
#3130
0#
0!
#3135
1!
#3140
1#
0!
#3145
b11010001 &
1!
#3150
0#
0!
#3155
1!
#3160
1#
0!
#3165
b11010000 &
1!
#3170
0#
0!
#3175
1!
#3180
1#
0!
#3185
b11001111 &
1!
#3190
0#
0!
#3195
1!
#3200
1#
0!
#3205
b11001110 &
1!
#3210
0#
0!
#3215
1!
#3220
1#
0!
#3225
b11001101 &
1!
#3230
0#
0!
#3235
1!
#3240
1#
0!
#3245
b11001100 &
1!
#3250
0#
0!
#3255
1!
#3260
1#
0!
#3265
b11001011 &
1!
#3270
0#
0!
#3275
1!
#3280
1#
0!
#3285
b11001010 &
1!
#3290
0#
0!
#3295
1!
#3300
1#
0!
#3305
b11001001 &
1!
#3310
0#
0!
#3315
1!
#3320
1#
0!
#3325
b11001000 &
1!
#3330
0#
0!
#3335
1!
#3340
1#
0!
#3345
b11000111 &
1!
#3350
0#
0!
#3355
1!
#3360
1#
0!
#3365
b11000110 &
1!
#3370
0#
0!
#3375
1!
#3380
1#
0!
#3385
b11000101 &
1!
#3390
0#
0!
#3395
1!
#3400
1#
0!
#3405
b11000100 &
1!
#3410
0#
0!
#3415
1!
#3420
1#
0!
#3425
b11000011 &
1!
#3430
0#
0!
#3435
1!
#3440
1#
0!
#3445
b11000010 &
1!
#3450
0#
0!
#3455
1!
#3460
1#
0!
#3465
b11000001 &
1!
#3470
0#
0!
#3475
1!
#3480
1#
0!
#3485
b11000000 &
1!
#3490
0#
0!
#3495
1!
#3500
1#
0!
#3505
b10111111 &
1!
#3510
0#
0!
#3515
1!
#3520
1#
0!
#3525
b10111110 &
1!
#3530
0#
0!
#3535
1!
#3540
1#
0!
#3545
b10111101 &
1!
#3550
0#
0!
#3555
1!
#3560
1#
0!
#3565
b10111100 &
1!
#3570
0#
0!
#3575
1!
#3580
1#
0!
#3585
b10111011 &
1!
#3590
0#
0!
#3595
1!
#3600
1#
0!
#3605
b10111010 &
1!
#3610
0#
0!
#3615
1!
#3620
1#
0!
#3625
b10111001 &
1!
#3630
0#
0!
#3635
1!
#3640
1#
0!
#3645
b10111000 &
1!
#3650
0#
0!
#3655
1!
#3660
1#
0!
#3665
b10110111 &
1!
#3670
0#
0!
#3675
1!
#3680
1#
0!
#3685
b10110110 &
1!
#3690
0#
0!
#3695
1!
#3700
1#
0!
#3705
b10110101 &
1!
#3710
0#
0!
#3715
1!
#3720
1#
0!
#3725
b10110100 &
1!
#3730
0#
0!
#3735
1!
#3740
1#
0!
#3745
b10110011 &
1!
#3750
0#
0!
#3755
1!
#3760
1#
0!
#3765
b10110010 &
1!
#3770
0#
0!
#3775
1!
#3780
1#
0!
#3785
b10110001 &
1!
#3790
0#
0!
#3795
1!
#3800
1#
0!
#3805
b10110000 &
1!
#3810
0#
0!
#3815
1!
#3820
1#
0!
#3825
b10101111 &
1!
#3830
0#
0!
#3835
1!
#3840
1#
0!
#3845
b10101110 &
1!
#3850
0#
0!
#3855
1!
#3860
1#
0!
#3865
b10101101 &
1!
#3870
0#
0!
#3875
1!
#3880
1#
0!
#3885
b10101100 &
1!
#3890
0#
0!
#3895
1!
#3900
1#
0!
#3905
b10101011 &
1!
#3910
0#
0!
#3915
1!
#3920
1#
0!
#3925
b10101010 &
1!
#3930
0#
0!
#3935
1!
#3940
1#
0!
#3945
b10101001 &
1!
#3950
0#
0!
#3955
1!
#3960
1#
0!
#3965
b10101000 &
1!
#3970
0#
0!
#3975
1!
#3980
1#
0!
#3985
b10100111 &
1!
#3990
0#
0!
#3995
1!
#4000
1#
0!
#4005
b10100110 &
1!
#4010
0#
0!
#4015
1!
#4020
1#
0!
#4025
b10100101 &
1!
#4030
0#
0!
#4035
1!
#4040
1#
0!
#4045
b10100100 &
1!
#4050
0#
0!
#4055
1!
#4060
1#
0!
#4065
b10100011 &
1!
#4070
0#
0!
#4075
1!
#4080
1#
0!
#4085
b10100010 &
1!
#4090
0#
0!
#4095
1!
#4100
1#
0!
#4105
b10100001 &
1!
#4110
0#
0!
#4115
1!
#4120
1#
0!
#4125
b10100000 &
1!
#4130
0#
0!
#4135
1!
#4140
1#
0!
#4145
b10011111 &
1!
#4150
0#
0!
#4155
1!
#4160
1#
0!
#4165
b10011110 &
1!
#4170
0#
0!
#4175
1!
#4180
1#
0!
#4185
b10011101 &
1!
#4190
0#
0!
#4195
1!
#4200
1#
0!
#4205
b10011100 &
1!
#4210
0#
0!
#4215
1!
#4220
1#
0!
#4225
b10011011 &
1!
#4230
0#
0!
#4235
1!
#4240
1#
0!
#4245
b10011010 &
1!
#4250
0#
0!
#4255
1!
#4260
1#
0!
#4265
b10011001 &
1!
#4270
0#
0!
#4275
1!
#4280
1#
0!
#4285
b10011000 &
1!
#4290
0#
0!
#4295
1!
#4300
1#
0!
#4305
b10010111 &
1!
#4310
0#
0!
#4315
1!
#4320
1#
0!
#4325
b10010110 &
1!
#4330
0#
0!
#4335
1!
#4340
1#
0!
#4345
b10010101 &
1!
#4350
0#
0!
#4355
1!
#4360
1#
0!
#4365
b10010100 &
1!
#4370
0#
0!
#4375
1!
#4380
1#
0!
#4385
b10010011 &
1!
#4390
0#
0!
#4395
1!
#4400
1#
0!
#4405
b10010010 &
1!
#4410
0#
0!
#4415
1!
#4420
1#
0!
#4425
b10010001 &
1!
#4430
0#
0!
#4435
1!
#4440
1#
0!
#4445
b10010000 &
1!
#4450
0#
0!
#4455
1!
#4460
1#
0!
#4465
b10001111 &
1!
#4470
0#
0!
#4475
1!
#4480
1#
0!
#4485
b10001110 &
1!
#4490
0#
0!
#4495
1!
#4500
1#
0!
#4505
b10001101 &
1!
#4510
0#
0!
#4515
1!
#4520
1#
0!
#4525
b10001100 &
1!
#4530
0#
0!
#4535
1!
#4540
1#
0!
#4545
b10001011 &
1!
#4550
0#
0!
#4555
1!
#4560
1#
0!
#4565
b10001010 &
1!
#4570
0#
0!
#4575
1!
#4580
1#
0!
#4585
b10001001 &
1!
#4590
0#
0!
#4595
1!
#4600
1#
0!
#4605
b10001000 &
1!
#4610
0#
0!
#4615
1!
#4620
1#
0!
#4625
b10000111 &
1!
#4630
0#
0!
#4635
1!
#4640
1#
0!
#4645
b10000110 &
1!
#4650
0#
0!
#4655
1!
#4660
1#
0!
#4665
b10000101 &
1!
#4670
0#
0!
#4675
1!
#4680
1#
0!
#4685
b10000100 &
1!
#4690
0#
0!
#4695
1!
#4700
1#
0!
#4705
b10000011 &
1!
#4710
0#
0!
#4715
1!
#4720
1#
0!
#4725
b10000010 &
1!
#4730
0#
0!
#4735
1!
#4740
1#
0!
#4745
b10000001 &
1!
#4750
0#
0!
#4755
1!
#4760
1#
0!
#4765
b10000000 &
1!
#4770
0#
0!
#4775
1!
#4780
1#
0!
#4785
b1111111 &
1!
#4790
0#
0!
